<?xml version="1.0" encoding="utf-8"?>
<!-- Generator: Adobe Illustrator 21.1.0, SVG Export Plug-In . SVG Version: 6.00 Build 0)  -->
<svg version="1.1" id="Layer_1" xmlns="http://www.w3.org/2000/svg" xmlns:xlink="http://www.w3.org/1999/xlink" x="0px" y="0px"
	 viewBox="0 0 266 73.7" style="enable-background:new 0 0 266 73.7;" xml:space="preserve">
<style type="text/css">
	.st0{fill:url(#SVGID_1_);}
	.st1{fill:#FFFFFF;}
	.st2{clip-path:url(#SVGID_3_);}
	.st3{opacity:0.1;clip-path:url(#SVGID_5_);}
	.st4{fill:#F6EFEF;}
	.st5{fill:url(#SVGID_6_);stroke:#FFFFFF;stroke-miterlimit:10;}
	.st6{display:none;}
	.st7{display:inline;}
	.st8{display:inline;opacity:0.15;clip-path:url(#SVGID_8_);}
	.st9{fill:#C43349;}
	.st10{display:inline;fill:none;stroke:#C43349;stroke-width:15;stroke-miterlimit:10;}
	.st11{fill:none;stroke:#FFFFFF;stroke-width:15;stroke-miterlimit:10;}
</style>
<g>
	<g>
		<path class="st4" d="M26.9,56.4H0.4c0.3-0.5,0.6-1.1,0.9-2c0.2-0.7,0.4-1.7,0.6-2.9c0.2-1.2,0.3-2.8,0.3-4.6V10.3
			c0-1.8-0.1-3.4-0.3-4.6C1.7,4.5,1.5,3.5,1.3,2.8C1,1.9,0.8,1.3,0.4,0.8h11.7c-0.4,0.5-0.7,1.1-0.9,2c-0.3,0.7-0.5,1.7-0.6,2.9
			c-0.2,1.2-0.2,2.8-0.2,4.6V51c0,0.3,0.1,0.6,0.2,1c0.1,0.4,0.4,0.8,0.7,1.1c0.3,0.4,0.8,0.7,1.4,0.9c0.6,0.2,1.4,0.4,2.4,0.4H18
			c1.2,0,2.2-0.2,2.9-0.7c0.7-0.4,1.3-1,1.8-1.8c0.4-0.7,0.8-1.6,1.1-2.5c0.3-0.9,0.5-1.8,0.8-2.8h1.8L26.9,56.4z M21.3,21
			c-0.1-1.1-0.2-2.2-0.5-3.2c-0.3-1-0.6-1.9-1.1-2.6c1.2,0.3,2.2,0.9,3,1.7c0.8,0.8,1.5,1.7,2,2.7c0.5,1,0.9,1.9,1.1,2.9
			c0.2,0.9,0.4,1.7,0.4,2.3c0.1,1.1,0,2.2-0.2,3.1c-0.2,0.9-0.5,1.8-0.7,2.7c-0.3,0.9-0.5,1.8-0.7,2.8c-0.2,1-0.3,2.1-0.2,3.3
			c0.1,1,0.2,2,0.5,2.7c0.3,0.8,0.7,1.5,1.1,2.3c-1.3-0.4-2.4-1-3.2-1.8c-0.8-0.8-1.5-1.7-2-2.6c-0.5-0.9-0.8-1.9-1-2.7
			c-0.2-0.9-0.3-1.6-0.3-2.2c-0.1-1.1,0-2.1,0.2-3c0.2-0.8,0.5-1.7,0.7-2.5c0.3-0.8,0.5-1.7,0.7-2.6C21.2,23.3,21.3,22.2,21.3,21z"
			/>
		<path class="st4" d="M49.5,56.4c0.3-0.5,0.5-1.1,0.7-1.8c0.2-0.6,0.3-1.4,0.4-2.3c0.1-0.9,0-2-0.3-3.3l-3.7-19.1h-8.1l-5.2,22.4
			c-0.1,0.5-0.2,1-0.2,1.5c0,0.5,0,0.9,0,1.3c0,0.5,0,0.9,0.1,1.3H29c0.3-0.4,0.5-0.8,0.7-1.3c0.2-0.4,0.4-0.9,0.6-1.4
			c0.2-0.5,0.4-1.2,0.6-1.8L41.8,4.7c-0.4-1.4-0.8-2.4-1-3l-0.5-0.9h9l4.9,24.9L59,50.6c0.2,0.9,0.4,1.7,0.6,2.4
			c0.3,0.7,0.5,1.3,0.8,1.8c0.3,0.6,0.5,1.1,0.9,1.6H49.5z M46.2,27.3l-3.3-16.8L39,27.3H46.2z"/>
		<path class="st4" d="M106.7,46.8c0,1.8,0.1,3.4,0.2,4.6c0.2,1.2,0.4,2.2,0.6,2.9c0.2,0.9,0.5,1.6,0.9,2H96.6
			c0.4-0.4,0.7-1,0.9-1.8c0.2-0.8,0.4-1.7,0.5-2.6c0.1-0.9,0.2-1.9,0.2-2.8c0-0.9,0-1.7,0-2.3V11.7l-9,39.5h-2.4l-9.6-39.4v39.8
			c0,0.7,0.1,1.3,0.2,1.9c0.1,0.6,0.3,1.1,0.5,1.5c0.2,0.5,0.4,1,0.7,1.4h-5.3c0.3-0.4,0.5-0.9,0.7-1.4c0.2-0.4,0.3-0.9,0.5-1.5
			c0.2-0.6,0.2-1.2,0.2-2v-42c-0.1-1.7-0.2-3.1-0.3-4.1c-0.2-1.1-0.3-2-0.5-2.7c-0.2-0.8-0.5-1.4-0.8-1.9H83l8,32.4l7.4-32.4h10
			c-0.4,0.5-0.7,1.1-0.9,2c-0.3,0.7-0.5,1.7-0.6,2.9c-0.2,1.2-0.2,2.8-0.2,4.6v0.1V46.8z"/>
		<path class="st4" d="M117.9,54.2c-1.1,0.1-2.2,0.2-3.2,0.5c-1,0.3-1.9,0.6-2.6,1.1c0.3-1.2,0.9-2.2,1.7-3c0.8-0.8,1.7-1.5,2.7-2
			c1-0.5,1.9-0.9,2.9-1.1c0.9-0.2,1.7-0.4,2.3-0.4c1.1-0.1,2.2,0,3.1,0.2c0.9,0.2,1.8,0.5,2.7,0.7c0.9,0.3,1.8,0.5,2.8,0.7
			c1,0.2,2.1,0.3,3.3,0.2c1-0.1,2-0.2,2.7-0.5c0.8-0.3,1.5-0.7,2.3-1.1c-0.4,1.3-1,2.4-1.8,3.2c-0.8,0.8-1.7,1.5-2.6,2
			c-0.9,0.5-1.9,0.8-2.7,1c-0.9,0.2-1.6,0.3-2.2,0.3c-1.1,0.1-2.1,0-3-0.2c-0.8-0.2-1.7-0.5-2.5-0.7c-0.8-0.3-1.7-0.5-2.6-0.7
			C120.3,54.2,119.2,54.1,117.9,54.2z M138.8,44h-26.5c0.3-0.5,0.6-1.1,0.9-2c0.2-0.7,0.4-1.7,0.6-2.9c0.2-1.2,0.3-2.8,0.3-4.6V10.3
			c0-1.8-0.1-3.4-0.3-4.6c-0.2-1.2-0.4-2.2-0.6-2.9c-0.3-0.9-0.5-1.6-0.9-2H138l-0.7,7.7h-1.8c-0.3-1-0.5-1.9-0.8-2.7
			c-0.3-0.7-0.7-1.3-1.2-1.8c-0.5-0.5-1.3-0.8-2.3-1c-1-0.2-2.4-0.3-4.1-0.3h-4.8v14.5c1.6,0.1,3,0.1,4.3,0c1.3-0.1,2.4-0.2,3.4-0.3
			c1.1-0.2,2.1-0.3,2.9-0.5c0.1,0.3,0.1,0.7,0.1,1c0,0.6-0.1,1.3-0.4,2.2c-0.3,0.8-0.8,1.3-1.7,1.5c-0.9,0.2-1.8,0.2-2.7,0l-5.9-1.6
			v19.3c0,0.3,0.1,0.6,0.2,1c0.1,0.4,0.4,0.8,0.7,1.1c0.3,0.4,0.8,0.7,1.4,0.9c0.6,0.2,1.4,0.4,2.4,0.4h2.7c1.2,0,2.2-0.2,2.9-0.7
			c0.7-0.4,1.3-1,1.8-1.8c0.4-0.8,0.8-1.6,1-2.5c0.2-0.9,0.5-1.8,0.7-2.8h1.8L138.8,44z"/>
		<path class="st4" d="M168.9,46.7l0.7,9.7h-27l18.2-53.6h-6.7c-1.8,0-3.2,0.1-4.1,0.3c-1,0.2-1.8,0.5-2.3,1
			c-0.5,0.5-0.9,1.1-1.2,1.8c-0.2,0.7-0.5,1.6-0.7,2.7h-1.8l-0.7-7.7h26.6l-18.3,53.6h9.2c1.2,0,2.2-0.2,2.9-0.7
			c0.7-0.4,1.3-1,1.8-1.8c0.4-0.8,0.8-1.6,1-2.5c0.2-0.9,0.5-1.8,0.7-2.8H168.9z"/>
		<path class="st4" d="M191.8,42.1c0.4-0.4,1.1-0.7,2-0.7c0.9-0.1,1.8,0.1,2.7,0.4c0.9,0.4,1.7,1,2.4,1.9c0.7,0.9,1.1,2.2,1.1,3.7
			c0,0.9-0.2,2-0.5,3.1c-0.3,1.1-0.9,2.1-1.7,3.1c-0.8,1-1.9,1.8-3.4,2.5c-1.5,0.7-3.3,1-5.6,1c-2.3,0-4.4-0.3-6.1-0.9
			c-1.7-0.6-3.2-1.5-4.4-2.5c-1.2-1.1-2.1-2.3-2.7-3.8c-0.6-1.4-0.9-3-0.9-4.6V11.8c0-1.6,0.3-3.1,0.9-4.6c0.6-1.4,1.5-2.7,2.7-3.8
			c1.2-1.1,2.7-1.9,4.4-2.5c1.7-0.6,3.8-0.9,6.1-0.9c2.7,0,4.8,0.4,6.5,1.1c1.6,0.7,2.9,1.6,3.8,2.7c0.9,1.1,1.5,2.2,1.9,3.4
			c0.3,1.2,0.5,2.4,0.5,3.4c0,1.6-0.3,3-0.8,4.2c-0.5,1.2-1.2,2.1-2,2.9c-0.8,0.8-1.7,1.3-2.6,1.7c-0.9,0.4-1.8,0.5-2.6,0.5
			c-0.9,0-1.9-0.1-2.8-0.4c-0.9-0.3-1.7-0.6-2.4-1.1c-0.7-0.5-1.2-1-1.6-1.6c-0.4-0.6-0.6-1.3-0.6-2c1.7,0.6,3.4,0.5,5.2-0.3
			c1.7-0.8,2.9-1.9,3.5-3.6c0.3-0.7,0.5-1.5,0.5-2.6c0-1-0.2-2-0.7-3c-0.4-1-1.1-1.8-2-2.5c-0.9-0.7-2.1-1-3.6-1
			c-1.1,0-2.1,0.2-2.9,0.6c-0.8,0.4-1.4,0.9-1.9,1.6c-0.5,0.6-0.8,1.3-1,2c-0.2,0.7-0.3,1.4-0.3,2v40.8c0,0.6,0.1,1.2,0.3,2
			c0.2,0.7,0.5,1.4,1,2c0.5,0.6,1.1,1.1,1.9,1.6c0.8,0.4,1.7,0.6,2.9,0.6c1.9,0,3.4-0.6,4.5-1.8c1.1-1.2,1.8-2.6,2-4.1
			c0.3-1.9,0.1-3.4-0.5-4.5C194.3,43.5,193.3,42.7,191.8,42.1z"/>
		<path class="st4" d="M231.2,56.4h-26.5c0.3-0.5,0.6-1.1,0.9-2c0.2-0.7,0.4-1.7,0.6-2.9c0.2-1.2,0.3-2.8,0.3-4.6V10.3
			c0-1.8-0.1-3.4-0.3-4.6c-0.2-1.2-0.4-2.2-0.6-2.9c-0.3-0.9-0.5-1.6-0.9-2h11.7c-0.4,0.5-0.7,1.1-0.9,2c-0.3,0.7-0.5,1.7-0.6,2.9
			c-0.2,1.2-0.2,2.8-0.2,4.6V51c0,0.3,0.1,0.6,0.2,1c0.1,0.4,0.4,0.8,0.7,1.1c0.3,0.4,0.8,0.7,1.4,0.9c0.6,0.2,1.4,0.4,2.4,0.4h2.7
			c1.2,0,2.2-0.2,2.9-0.7c0.7-0.4,1.3-1,1.8-1.8c0.4-0.7,0.8-1.6,1.1-2.5c0.3-0.9,0.5-1.8,0.8-2.8h1.8L231.2,56.4z"/>
		<path class="st4" d="M253.8,56.4c0.3-0.5,0.5-1.1,0.7-1.8c0.2-0.6,0.3-1.4,0.4-2.3c0.1-0.9,0-2-0.3-3.3l-3.7-19.1h-8.1l-5.2,22.4
			c-0.1,0.5-0.2,1-0.2,1.5c0,0.5,0,0.9,0,1.3c0,0.5,0,0.9,0.1,1.3h-4.2c0.3-0.4,0.5-0.8,0.7-1.3c0.2-0.4,0.4-0.9,0.6-1.4
			c0.2-0.5,0.4-1.2,0.6-1.8l10.9-47.1c-0.4-1.4-0.8-2.4-1-3l-0.5-0.9h9l4.9,24.9l4.9,24.9c0.2,0.9,0.4,1.7,0.6,2.4
			c0.3,0.7,0.5,1.3,0.8,1.8c0.3,0.6,0.5,1.1,0.9,1.6H253.8z M250.5,27.3l-3.3-16.8l-3.8,16.8H250.5z"/>
	</g>
	<g>
		<path class="st4" d="M0.5,65.8c0-2.9,1.4-4.4,4.1-4.4c1.2,0,2.2,0.3,2.9,1c0.7,0.6,1.1,1.5,1.1,2.7v0.1H6.4v-0.1
			c0-0.6-0.2-1-0.5-1.3c-0.3-0.3-0.8-0.5-1.4-0.5c-0.7,0-1.2,0.2-1.5,0.6c-0.3,0.4-0.5,1.1-0.5,2.1v2.4c0,0.9,0.2,1.5,0.5,2
			c0.3,0.4,0.8,0.6,1.5,0.6c0.6,0,1.1-0.2,1.4-0.5c0.3-0.3,0.5-0.8,0.5-1.3v-0.1h2.1V69c0,1.2-0.4,2.1-1.1,2.7c-0.7,0.6-1.7,1-2.9,1
			c-2.7,0-4-1.5-4-4.4V65.8z"/>
		<path class="st4" d="M10.1,65.8c0-2.9,1.3-4.4,4-4.4c1.2,0,2.2,0.3,2.9,1c0.7,0.7,1.1,1.8,1.1,3.4v2.5c0,1.6-0.4,2.7-1.1,3.4
			c-0.7,0.7-1.7,1-3,1c-2.6,0-4-1.5-4-4.4V65.8z M16,68.3v-2.4c0-0.9-0.2-1.6-0.5-2c-0.3-0.4-0.8-0.6-1.4-0.6
			c-0.7,0-1.2,0.2-1.5,0.6c-0.3,0.4-0.4,1.1-0.4,2.1v2.4c0,0.9,0.1,1.6,0.4,2c0.3,0.4,0.8,0.6,1.5,0.6c0.6,0,1.1-0.2,1.4-0.6
			C15.9,69.8,16,69.2,16,68.3z"/>
		<path class="st4" d="M26.3,72.6h-7.2v-1.8l4.8-7.4h-4.7v-1.8h6.9v1.8l-4.7,7.4h4.9V72.6z"/>
		<path class="st4" d="M29.9,61.5v11.1h-2.1V61.5H29.9z"/>
		<path class="st4" d="M40.1,72.6H38l-4.1-6.9v6.9h-2.1V61.5h2.1l4.1,6.9v-6.9h2.1V72.6z"/>
		<path class="st4" d="M49.9,72.6h-2.1v-4.7h-3.7v4.7H42V61.5h2.1v4.6h3.7v-4.6h2.1V72.6z"/>
		<path class="st4" d="M53.8,70.5l-0.7,2.1h-2.2l3.9-11.1h1.7l3.9,11.1h-2.2l-0.7-2.1H53.8z M55.7,64.5l-1.3,4.2H57L55.7,64.5z"/>
		<path class="st4" d="M66.7,70.5L66,72.6h-2.2l3.9-11.1h1.7l3.9,11.1h-2.2l-0.7-2.1H66.7z M68.6,64.5l-1.3,4.2h2.7L68.6,64.5z"/>
		<path class="st4" d="M74.7,70.9c-0.3-0.6-0.5-1.2-0.5-1.9v-7.4h2.1v7.3c0,0.6,0.2,1.1,0.5,1.5c0.3,0.3,0.8,0.5,1.4,0.5
			c0.6,0,1-0.2,1.4-0.5c0.3-0.3,0.5-0.8,0.5-1.5v-7.3h2.1V69c0,0.7-0.2,1.4-0.5,1.9c-0.3,0.6-0.8,1-1.4,1.3c-0.6,0.3-1.3,0.5-2,0.5
			c-0.7,0-1.4-0.2-2-0.5C75.5,71.9,75,71.5,74.7,70.9z"/>
		<path class="st4" d="M88.1,63.4v9.2H86v-9.2h-2.8v-1.8h7.8v1.8H88.1z"/>
		<path class="st4" d="M91.3,65.8c0-2.9,1.3-4.4,4-4.4c1.2,0,2.2,0.3,2.9,1s1.1,1.8,1.1,3.4v2.5c0,1.6-0.4,2.7-1.1,3.4
			c-0.7,0.7-1.7,1-3,1c-2.6,0-4-1.5-4-4.4V65.8z M97.2,68.3v-2.4c0-0.9-0.2-1.6-0.5-2c-0.3-0.4-0.8-0.6-1.4-0.6
			c-0.7,0-1.2,0.2-1.5,0.6c-0.3,0.4-0.4,1.1-0.4,2.1v2.4c0,0.9,0.1,1.6,0.4,2c0.3,0.4,0.8,0.6,1.5,0.6c0.6,0,1.1-0.2,1.4-0.6
			C97.1,69.8,97.2,69.2,97.2,68.3z"/>
		<path class="st4" d="M103,68.1v4.5h-2.1V61.5h4.2c1.1,0,1.9,0.3,2.6,0.9c0.6,0.6,1,1.4,1,2.4c0,0.7-0.2,1.3-0.5,1.8
			c-0.3,0.5-0.8,0.9-1.5,1.1l2.4,4.8h-2.4l-2.1-4.5H103z M105,66.4c0.5,0,0.9-0.1,1.1-0.4c0.3-0.3,0.4-0.6,0.4-1.1
			c0-0.4-0.1-0.8-0.4-1.1s-0.7-0.4-1.1-0.4h-2v3H105z"/>
		<path class="st4" d="M112.6,70.5l-0.7,2.1h-2.2l3.9-11.1h1.7l3.9,11.1H117l-0.7-2.1H112.6z M114.4,64.5l-1.3,4.2h2.7L114.4,64.5z"
			/>
		<path class="st4" d="M122.4,61.5v9.2h4.8v1.8h-6.9V61.5H122.4z"/>
		<path class="st4" d="M134.1,61.5v9.2h4.8v1.8H132V61.5H134.1z"/>
		<path class="st4" d="M142.3,70.5l-0.7,2.1h-2.2l3.9-11.1h1.7l3.9,11.1h-2.2l-0.7-2.1H142.3z M144.2,64.5l-1.3,4.2h2.7L144.2,64.5z
			"/>
		<path class="st4" d="M153.1,63.4v9.2H151v-9.2h-2.8v-1.8h7.8v1.8H153.1z"/>
		<path class="st4" d="M159.2,61.5v11.1h-2.1V61.5H159.2z"/>
		<path class="st4" d="M169.4,72.6h-2.1l-4.1-6.9v6.9h-2.1V61.5h2.1l4.1,6.9v-6.9h2.1V72.6z"/>
		<path class="st4" d="M171.2,65.8c0-2.9,1.3-4.4,4-4.4c1.2,0,2.2,0.3,2.9,1s1.1,1.8,1.1,3.4v2.5c0,1.6-0.4,2.7-1.1,3.4
			c-0.7,0.7-1.7,1-3,1c-2.6,0-4-1.5-4-4.4V65.8z M177.1,68.3v-2.4c0-0.9-0.2-1.6-0.5-2c-0.3-0.4-0.8-0.6-1.4-0.6
			c-0.7,0-1.2,0.2-1.5,0.6c-0.3,0.4-0.4,1.1-0.4,2.1v2.4c0,0.9,0.1,1.6,0.4,2c0.3,0.4,0.8,0.6,1.5,0.6c0.6,0,1.1-0.2,1.4-0.6
			C177,69.8,177.1,69.2,177.1,68.3z"/>
		<path class="st4" d="M186.2,70.5l-0.7,2.1h-2.2l3.9-11.1h1.7l3.9,11.1h-2.2l-0.7-2.1H186.2z M188,64.5l-1.3,4.2h2.7L188,64.5z"/>
		<path class="st4" d="M203.7,72.6h-2.1V66l-2.1,4.4h-1.4L196,66v6.6h-2.1V61.5h2.1l2.8,6.1l2.8-6.1h2.1V72.6z"/>
		<path class="st4" d="M207.7,66.1h4.2v1.8h-4.2v2.8h4.9v1.8h-7V61.5h7v1.8h-4.9V66.1z"/>
		<path class="st4" d="M216.2,68.1v4.5h-2.1V61.5h4.2c1.1,0,1.9,0.3,2.6,0.9c0.6,0.6,1,1.4,1,2.4c0,0.7-0.2,1.3-0.5,1.8
			c-0.3,0.5-0.8,0.9-1.5,1.1l2.4,4.8h-2.4l-2.1-4.5H216.2z M218.2,66.4c0.5,0,0.9-0.1,1.1-0.4c0.3-0.3,0.4-0.6,0.4-1.1
			c0-0.4-0.1-0.8-0.4-1.1s-0.7-0.4-1.1-0.4h-2v3H218.2z"/>
		<path class="st4" d="M225.8,61.5v11.1h-2.1V61.5H225.8z"/>
		<path class="st4" d="M227.6,65.8c0-2.9,1.4-4.4,4.1-4.4c1.2,0,2.2,0.3,2.9,1s1.1,1.5,1.1,2.7v0.1h-2.1v-0.1c0-0.6-0.2-1-0.5-1.3
			c-0.3-0.3-0.8-0.5-1.4-0.5c-0.7,0-1.2,0.2-1.5,0.6c-0.3,0.4-0.5,1.1-0.5,2.1v2.4c0,0.9,0.2,1.5,0.5,2c0.3,0.4,0.8,0.6,1.5,0.6
			c0.6,0,1.1-0.2,1.4-0.5c0.3-0.3,0.5-0.8,0.5-1.3v-0.1h2.1V69c0,1.2-0.4,2.1-1.1,2.7c-0.7,0.6-1.7,1-2.9,1c-2.7,0-4-1.5-4-4.4V65.8
			z"/>
		<path class="st4" d="M238.9,70.5l-0.7,2.1H236l3.9-11.1h1.7l3.9,11.1h-2.2l-0.7-2.1H238.9z M240.8,64.5l-1.3,4.2h2.7L240.8,64.5z"
			/>
		<path class="st4" d="M254.9,72.6h-2.1l-4.1-6.9v6.9h-2.1V61.5h2.1l4.1,6.9v-6.9h2.1V72.6z"/>
		<path class="st4" d="M258.8,70.5l-0.7,2.1h-2.2l3.9-11.1h1.7l3.9,11.1h-2.2l-0.7-2.1H258.8z M260.7,64.5l-1.3,4.2h2.7L260.7,64.5z
			"/>
	</g>
</g>
</svg>
